before
…
before_ld%>%            
  unnest_tokens(input = OriginalTweet, output = word)%>%
  select(word)%>%
  anti_join(stop_words)%>%
  group_by(word)%>%
  summarize(count = n())%>%
  ungroup()%>%
  arrange(desc(count))%>%
  top_n(25)

## Joining, by = "word"

## Selecting by count

## # A tibble: 25 x 2
##    word        count
##    <chr>       <int>
##  1 covid_19     1481
##  2 t.co         1316
##  3 https        1314
##  4 coronavirus  1095
##  5 food          939
##  6 store         800
##  7 grocery       673
##  8 stock         604
##  9 people        584
## 10 covid         462
## # ... with 15 more rows
…
after_ld%>%         
  unnest_tokens(input = OriginalTweet, output = word)%>%
  select(word)%>%
  anti_join(stop_words)%>%
  group_by(word)%>%
  summarize(count = n())%>%
  ungroup()%>%
  arrange(desc(count))%>%
  top_n(25)

## Joining, by = "word"

## Selecting by count

## # A tibble: 25 x 2
##    word        count
##    <chr>       <int>
##  1 https       24258
##  2 t.co        24244
##  3 coronavirus 18373
##  4 19          12788
##  5 covid       12350
##  6 prices       7966
##  7 food         7326
##  8 supermarket  7142
##  9 store        7015
## 10 grocery      6339
## # ... with 15 more rows
…
