5205_final
…
# sentiment score

tweets_words %>%
  inner_join(afinn,by = 'word')%>%
  group_by(user_name)%>%
  summarize(tweet_sentiment = mean(value,na.rm=T))%>%
  ungroup()

## # A tibble: 656 x 2
##    user_name                                                     tweet_sentiment
##    <chr>                                                                   <dbl>
##  1 ""                                                                      -0.25
##  2 " deplorable. Anti-woke"                                                -2   
##  3 " NB\""                                                                  1   
##  4 " Singapore"                                                             2   
##  5 "\"3x Vaxxed to the max\" #UBI #IDWP Doug "           -3   
##  6 "#RustyolTrusty \u008d~            3   
##  7 "#ScrapTheBill #FreeNazanin #JohnsonOut #Starmer4PM"                    -3   
##  8 "|\u0081\u0081| #GenXZeneca #FullyVaxxed"               -2   
##  9 "9News Sydney"                                                          -1   
## 10 "\u0081?\u0081\u0081\u~           -1   
## # ... with 646 more rows
…
